module log

go 1.22.2

require (
	github.com/go-chi/chi/v5 v5.0.12
	github.com/go-chi/cors v1.2.1
	go.mongodb.org/mongo-driver v1.15.0
)

require (
	github.com/golang/snappy v0.0.4 // indirect
	github.com/klauspost/compress v1.17.8 // indirect
	github.com/montanaflynn/stats v0.7.1 // indirect
	github.com/xdg-go/pbkdf2 v1.0.0 // indirect
	github.com/xdg-go/scram v1.1.2 // indirect
	github.com/xdg-go/stringprep v1.0.4 // indirect
	github.com/youmark/pkcs8 v0.0.0-20240424034433-3c2c7870ae76 // indirect
	github.com/yuin/goldmark v1.4.13 // indirect
	golang.org/x/crypto v0.23.0 // indirect
	golang.org/x/mod v0.8.0 // indirect
	golang.org/x/net v0.21.0 // indirect
	golang.org/x/sync v0.7.0 // indirect
	golang.org/x/sys v0.20.0 // indirect
	golang.org/x/term v0.20.0 // indirect
	golang.org/x/text v0.15.0 // indirect
	golang.org/x/tools v0.6.0 // indirect
)
